…
- We have a price range of \\0 - \\2600 and most products are prices
  below \$600 . More than 75% of the prices are below \$400

### Investigate low price products

``` r
events_data %>%
  distinct(product_id, .keep_all = T) %>%
  filter(price <= 0) %>%
  distinct(product_id, .keep_all = T)
```

    # A tibble: 1,365 × 10
       event_time          event_type product_id category_id     category_code brand
       <dttm>              <chr>      <chr>      <chr>           <chr>         <chr>
     1 2019-11-08 05:55:09 cart       5800296    20530135539457… electronics.… <NA> 
     2 2019-11-08 06:36:20 cart       19200239   20530135562023… construction… <NA> 
     3 2019-11-08 08:54:07 cart       13500452   20530135570998… furniture.be… <NA> 
     4 2019-11-08 09:51:42 cart       5701421    20530135539709… auto.accesso… <NA> 
     5 2019-11-08 11:47:28 cart       28722404   20530135657820… apparel.shoes <NA> 
     6 2019-11-08 13:06:49 cart       1802136    20530135544155… electronics.… <NA> 
     7 2019-11-08 17:01:14 cart       1005283    20530135556318… electronics.… <NA> 
     8 2019-11-08 17:07:48 cart       28722414   20530135656394… apparel.shoes <NA> 
     9 2019-11-08 17:12:31 cart       17200939   20530135597926… furniture.li… <NA> 
    10 2019-11-08 17:37:17 cart       50600107   21349050448336… auto.accesso… <NA> 
    # ℹ 1,355 more rows
    # ℹ 4 more variables: price <dbl>, user_id <chr>, user_session <chr>,
    #   event_date <date>
…
