…
  rm(merge)
  gc()  
```

               used  (Mb) gc trigger  (Mb) max used  (Mb)
    Ncells  1623503  86.8    6956024 371.5  8695030 464.4
    Vcells 36521160 278.7  119613974 912.6 99606827 760.0

``` r
  aggregate_data 
```

    # A tibble: 106,340 × 5
       product_id event_month conversion_rate number_units_sold
       <chr>      <ord>                 <dbl>             <int>
     1 100000000  December              1                     1
     2 100000002  December              1                     1
     3 100000013  December              0                     0
     4 100000016  December              0.333                 1
     5 100000021  December              0.5                   1
     6 100000024  December              0.357                10
     7 100000042  December              0                     0
     8 100000043  December              0.25                  2
     9 100000044  December              0.5                   1
    10 100000046  December              0.5                   4
    # ℹ 106,330 more rows
    # ℹ 1 more variable: number_unique_customers <int>
…
growth_avgs <- aggregate_data %>%
  summarise(mean_conv_growth = mean(conv_growth_rate,na.rm = T),
  mean_unq_cust_growth = mean(unq_cust_growth_rate,na.rm = T),
  mean_units_growth = mean(unit_growth_rate,na.rm = T))

top_products <- aggregate_data %>%
  filter(conv_growth_rate > growth_avgs$mean_conv_growth,
  unit_growth_rate > growth_avgs$mean_units_growth ,
  unq_cust_growth_rate > growth_avgs$mean_unq_cust_growth) %>%
    arrange(desc(unit_growth_rate),desc(unq_cust_growth_rate))
top_products
```

    # A tibble: 59 × 10
       product_id nov_conversion_rate nov_number_units_sold nov_number_unique_cust…¹
       <chr>                    <dbl>                 <int>                    <int>
     1 1004903                  0.342                  1546                     1197
     2 1004723                  0.345                   461                      373
     3 1005273                  0.349                   154                      141
     4 100003338                0.349                    37                       29
     5 4804497                  0.379                    64                       54
     6 1307136                  0.334                   235                      190
     7 5100505                  0.348                    73                       61
     8 1002542                  0.362                   298                      251
     9 1307589                  0.347                   473                      388
    10 1005245                  0.362                   100                       82
    # ℹ 49 more rows
    # ℹ abbreviated name: ¹​nov_number_unique_customers
    # ℹ 6 more variables: dec_conversion_rate <dbl>, dec_number_units_sold <int>,
    #   dec_number_unique_customers <int>, conv_growth_rate <dbl>,
    #   unit_growth_rate <dbl>, unq_cust_growth_rate <dbl>
…
